11111111111111111111111111111
22222222222222222222222222222222222222
333333333333333333333333333333333333333333;
4444444444444444444444444444444444444
5555555555555555555555555555555555555555
666666666666666666666666666666666666
777777777777777777777777777777777
: